<svg xmlns="http://www.w3.org/2000/svg" width="19.472" height="26.543" viewBox="0 0 19.472 26.543">
  <g id="addresss" transform="translate(-1.322 -288.797)">
    <path id="path929" d="M11.055,288.8a9.745,9.745,0,0,0-9.733,9.733c0,9.44,9.184,16.617,9.184,16.617a.885.885,0,0,0,1.1,0s9.184-7.177,9.184-16.617a9.751,9.751,0,0,0-9.739-9.733Zm0,1.77a7.954,7.954,0,0,1,7.969,7.962c0,7.723-6.993,13.825-7.962,14.651-.965-.822-7.969-6.925-7.969-14.651A7.948,7.948,0,0,1,11.055,290.567Z" transform="translate(0 0)" fill="#363636"/>
    <path id="circle931" d="M7.332,290.385a4.425,4.425,0,1,0,4.429,4.422A4.434,4.434,0,0,0,7.332,290.385Zm0,1.77a2.655,2.655,0,1,1-2.652,2.652A2.642,2.642,0,0,1,7.332,292.155Z" transform="translate(3.723 3.723)" fill="#363636"/>
  </g>
</svg>
