<svg xmlns="http://www.w3.org/2000/svg" width="19.654" height="18.433" viewBox="0 0 19.654 18.433">
  <g id="city" transform="translate(-2.348 -3.836)">
    <path id="Path_10012" data-name="Path 10012" d="M7.772,8.914A1.977,1.977,0,0,0,6.144,7.707v2.666l.842-.758Z" transform="translate(-1.065 -1.086)" fill="#363636"/>
    <path id="Path_10013" data-name="Path 10013" d="M7.93,11.6v-.683L7,11.769l-.851.767v.58L7,12.4Z" transform="translate(-1.065 -1.987)" fill="#363636"/>
    <path id="Path_10014" data-name="Path 10014" d="M7.93,16.014,7,16.837l-.851.748v1.786H7.93Z" transform="translate(-1.065 -3.416)" fill="#363636"/>
    <path id="Path_10015" data-name="Path 10015" d="M4.144,17.537l-.86-.776-.935-.851v3.433h1.8Z" transform="translate(0 -3.387)" fill="#363636"/>
    <rect id="Rectangle_2081" data-name="Rectangle 2081" width="0.935" height="4.443" transform="translate(4.144 15.956)" fill="#363636"/>
    <path id="Path_10016" data-name="Path 10016" d="M4.217,10.335V7.707A2,2,0,0,0,2.608,8.848l.758.7Z" transform="translate(-0.073 -1.086)" fill="#363636"/>
    <path id="Path_10017" data-name="Path 10017" d="M4.144,13.059v-.58l-.86-.8-.935-.87v.673l.935.823Z" transform="translate(0 -1.958)" fill="#363636"/>
    <path id="Path_10018" data-name="Path 10018" d="M4.144,15.593v-.552l-.86-.748-.935-.814v.486l.935.851Z" transform="translate(0 -2.705)" fill="#363636"/>
    <path id="Path_10019" data-name="Path 10019" d="M7.93,14.084V13.57l-.935.8-.851.73v.561L7,14.908Z" transform="translate(-1.065 -2.731)" fill="#363636"/>
    <path id="Path_10020" data-name="Path 10020" d="M28.808,8.914a1.977,1.977,0,0,0-1.627-1.207v2.666l.842-.758Z" transform="translate(-6.966 -1.086)" fill="#363636"/>
    <path id="Path_10021" data-name="Path 10021" d="M28.032,11.769l-.851.767v.58l.851-.72.935-.8v-.683Z" transform="translate(-6.966 -1.987)" fill="#363636"/>
    <path id="Path_10022" data-name="Path 10022" d="M27.181,17.585v1.786h1.786V16.014l-.935.823Z" transform="translate(-6.966 -3.416)" fill="#363636"/>
    <path id="Path_10023" data-name="Path 10023" d="M25.179,23.785h.935V19.343h-.933V17.537l-.86-.776-.935-.851v3.433h1.794Z" transform="translate(-5.901 -3.387)" fill="#363636"/>
    <path id="Path_10024" data-name="Path 10024" d="M25.254,10.335V7.707a2,2,0,0,0-1.609,1.141l.758.7Z" transform="translate(-5.974 -1.086)" fill="#363636"/>
    <path id="Path_10025" data-name="Path 10025" d="M25.181,13.059v-.58l-.86-.8-.935-.87v.673l.935.823Z" transform="translate(-5.901 -1.958)" fill="#363636"/>
    <path id="Path_10026" data-name="Path 10026" d="M25.181,15.593v-.552l-.86-.748-.935-.814v.486l.935.851Z" transform="translate(-5.901 -2.705)" fill="#363636"/>
    <path id="Path_10027" data-name="Path 10027" d="M27.181,15.095v.561l.851-.748.935-.823V13.57l-.935.8Z" transform="translate(-6.966 -2.731)" fill="#363636"/>
    <path id="Path_10028" data-name="Path 10028" d="M18.909,5.363a2.5,2.5,0,0,0-2.06-1.527V7.21l1.065-.959Z" transform="translate(-4.068 0)" fill="#363636"/>
    <path id="Path_10029" data-name="Path 10029" d="M19.11,8.764V7.9L17.926,8.977l-1.077.971v.734l1.077-.912Z" transform="translate(-4.068 -1.14)" fill="#363636"/>
    <path id="Path_10030" data-name="Path 10030" d="M19.11,14.349l-1.184,1.042-1.077.948V18.6H19.11Z" transform="translate(-4.068 -2.949)" fill="#363636"/>
    <path id="Path_10031" data-name="Path 10031" d="M14.318,16.278,13.229,15.3l-1.184-1.077v4.344h2.273Z" transform="translate(-2.72 -2.912)" fill="#363636"/>
    <rect id="Rectangle_2082" data-name="Rectangle 2082" width="1.179" height="4.751" transform="translate(11.598 15.647)" fill="#363636"/>
    <path id="Path_10032" data-name="Path 10032" d="M14.41,7.162V3.836A2.53,2.53,0,0,0,12.374,5.28l.959.888Z" transform="translate(-2.812 0)" fill="#363636"/>
    <path id="Path_10033" data-name="Path 10033" d="M14.318,10.609V9.875L13.229,8.869l-1.184-1.1v.853l1.184,1.042Z" transform="translate(-2.72 -1.103)" fill="#363636"/>
    <path id="Path_10034" data-name="Path 10034" d="M14.318,13.817v-.7l-1.089-.948-1.184-1.03v.616l1.184,1.077Z" transform="translate(-2.72 -2.049)" fill="#363636"/>
    <path id="Path_10035" data-name="Path 10035" d="M19.11,11.907v-.651l-1.184,1.007-1.077.923v.71l1.077-.947Z" transform="translate(-4.068 -2.082)" fill="#363636"/>
    <rect id="Rectangle_2083" data-name="Rectangle 2083" width="18.719" height="0.935" transform="translate(2.816 21.334)" fill="#363636"/>
  </g>
</svg>
