<svg xmlns="http://www.w3.org/2000/svg" width="21.718" height="23.692" viewBox="0 0 21.718 23.692">
  <path id="country" d="M1,23.692H2.974V0H1ZM15.807,5.923V1.974H4.949V3.949h8.884v7.9H4.949V13.82h6.91v3.949H22.718V5.923Zm4.936,9.872h-6.91V13.82h1.974V7.9h4.936Z" transform="translate(-1)" fill="#363636"/>
</svg>
