<svg xmlns="http://www.w3.org/2000/svg" width="16.4" height="16.4" viewBox="0 0 16.4 16.4">
  <g id="phone" transform="translate(-54.094 -48.02)">
    <path id="Path_10112" data-name="Path 10112" d="M66.113,64.42a8.1,8.1,0,0,1-1.893-.239,14.632,14.632,0,0,1-9.886-9.886c-.543-2.248-.156-4.171,1.09-5.416l.356-.356a1.721,1.721,0,0,1,2.432,0l2.044,2.044a1.721,1.721,0,0,1,0,2.432l-1.207,1.207a14.919,14.919,0,0,0,5.26,5.26l1.207-1.207a1.719,1.719,0,0,1,2.432,0L69.99,60.3a1.72,1.72,0,0,1,0,2.432l-.356.356A4.828,4.828,0,0,1,66.113,64.42ZM57,49.243a.489.489,0,0,0-.35.145l-.356.356c-.933.933-1.205,2.448-.767,4.262a13.419,13.419,0,0,0,8.986,8.985c1.815.438,3.329.166,4.262-.767l.356-.356a.5.5,0,0,0,0-.7l-2.043-2.044a.5.5,0,0,0-.7,0l-1.53,1.53a.612.612,0,0,1-.714.111,15.909,15.909,0,0,1-6.388-6.387.612.612,0,0,1,.111-.714l1.531-1.53a.5.5,0,0,0,0-.7l-2.044-2.044A.492.492,0,0,0,57,49.243Z" transform="translate(0 0)" fill="#363636"/>
    <path id="Path_10113" data-name="Path 10113" d="M240.772,131.355a.612.612,0,0,1-.612-.612,4.054,4.054,0,0,0-4.049-4.049.612.612,0,1,1,0-1.224,5.279,5.279,0,0,1,5.272,5.273A.612.612,0,0,1,240.772,131.355Z" transform="translate(-174.006 -74.291)" fill="#363636"/>
    <path id="Path_10114" data-name="Path 10114" d="M243.359,70.541a.612.612,0,0,1-.612-.612,6.644,6.644,0,0,0-6.635-6.635.612.612,0,1,1,0-1.224,7.868,7.868,0,0,1,7.859,7.859A.612.612,0,0,1,243.359,70.541Z" transform="translate(-174.006 -13.477)" fill="#363636"/>
  </g>
</svg>
