<svg xmlns="http://www.w3.org/2000/svg" width="15.398" height="15.398" viewBox="0 0 15.398 15.398">
  <path id="seacrh-1" d="M75.248,73.383a6.084,6.084,0,1,0-1.833,1.853l.277-.192L78.047,79.4,79.4,78.023l-4.351-4.355ZM73.52,66.695a4.821,4.821,0,1,1-3.408-1.411A4.789,4.789,0,0,1,73.52,66.695Z" transform="translate(-64 -64)" fill="#707070"/>
</svg>
