<svg xmlns="http://www.w3.org/2000/svg" width="23" height="23" viewBox="0 0 23 23">
  <g id="user-1" transform="translate(0.624 0.624)">
    <circle id="Ellipse_2" data-name="Ellipse 2" cx="11" cy="11" r="11" transform="translate(-0.124 -0.124)" fill="none" stroke="#363636" stroke-linecap="round" stroke-miterlimit="10" stroke-width="1"/>
    <rect id="Rectangle_752" data-name="Rectangle 752" width="22" height="22" transform="translate(-0.124 -0.124)" fill="none"/>
    <path id="Path_5" data-name="Path 5" d="M17.232,18.74a16.673,16.673,0,0,1-.036-1.7,3.324,3.324,0,0,0,.911-1.972c.232-.019.6-.245.7-1.137A.832.832,0,0,0,18.5,13.1c.377-1.133,1.159-4.638-1.447-5A2.05,2.05,0,0,0,15.2,7.391c-3.571.066-4,2.7-3.219,5.71a.834.834,0,0,0-.311.833c.107.892.472,1.118.7,1.137a3.316,3.316,0,0,0,.933,1.972,16.677,16.677,0,0,1-.037,1.7c-.509,1.367-3.121,1.474-4.628,2.793a9.862,9.862,0,0,0,6.823,2.721c2.694,0,5.861-2.127,6.389-2.708C20.36,20.216,17.742,20.112,17.232,18.74Z" transform="translate(-4.367 -3.618)" fill="#363636"/>
  </g>
</svg>
