<svg xmlns="http://www.w3.org/2000/svg" width="23.863" height="16.354" viewBox="0 0 23.863 16.354">
  <g id="selcet-followd" transform="translate(-203.417 -940.223)">
    <g id="Group_4109" data-name="Group 4109" transform="translate(203.917 940.723)">
      <g id="Group_4100" data-name="Group 4100" transform="translate(0 0)">
        <g id="_2303199_airplane_delivery_email_mail_paper_icon" data-name="2303199_airplane_delivery_email_mail_paper_icon" transform="translate(0)">
          <path id="Path_10004" data-name="Path 10004" d="M12.806,19.68l4.915,3.6L26.653,7.93,3.79,13.173l5.514,4V22.76Z" transform="translate(-3.79 -7.93)" fill="none" stroke="#4790fc" stroke-linecap="round" stroke-linejoin="round" stroke-width="1"/>
          <line id="Line_30" data-name="Line 30" y1="9.012" x2="17.046" transform="translate(5.386 0.421)" fill="none" stroke="#4790fc" stroke-linecap="round" stroke-linejoin="round" stroke-width="1"/>
          <path id="Path_10006" data-name="Path 10006" d="M0,10.308,14.54,0" transform="translate(7.893 0.421)" fill="none" stroke="#4790fc" stroke-linecap="round" stroke-width="1"/>
        </g>
      </g>
    </g>
    <path id="Path_10010" data-name="Path 10010" d="M1793.469,1154.3l4,2.525-3.3,2.59Z" transform="translate(-1584.195 -204.688)" fill="#4790fc"/>
  </g>
</svg>
