<svg xmlns="http://www.w3.org/2000/svg" width="141.333" height="71.411" viewBox="0 0 141.333 71.411">
  <g id="img" transform="translate(-587.412 -21.874)">
    <g id="Group_31" data-name="Group 31" transform="translate(587.412 21.874)">
      <path id="shadow" d="M156.156,2233H295.945a.772.772,0,0,0,.772-.772h0a.772.772,0,0,0-.772-.772H156.156a.772.772,0,0,0-.772.772h0A.772.772,0,0,0,156.156,2233Z" transform="translate(-155.384 -2161.592)" fill="#363636"/>
      <g id="plant" transform="translate(20.188 22.898)">
        <g id="Group_13" data-name="Group 13" transform="translate(9.576 22.394)">
          <g id="Group_12" data-name="Group 12">
            <path id="Rectangle_754" data-name="Rectangle 754" d="M0,0H15.622a0,0,0,0,1,0,0V10.649A7.811,7.811,0,0,1,7.811,18.46h0A7.811,7.811,0,0,1,0,10.649V0A0,0,0,0,1,0,0Z" transform="translate(0.866)" fill="#5896fa"/>
            <rect id="Rectangle_755" data-name="Rectangle 755" width="0.866" height="16.528" transform="translate(0 8.047)" fill="#0e0e0e"/>
            <rect id="Rectangle_756" data-name="Rectangle 756" width="0.866" height="16.528" transform="translate(16.488 8.047)" fill="#0e0e0e"/>
            <rect id="Rectangle_757" data-name="Rectangle 757" width="0.866" height="16.528" transform="translate(9.863 8.047)" fill="#0e0e0e"/>
          </g>
          <rect id="Rectangle_758" data-name="Rectangle 758" width="16.528" height="0.866" transform="translate(0 18.46)" fill="#0e0e0e"/>
        </g>
        <g id="Group_14" data-name="Group 14" transform="translate(18.719 3.992)">
          <path id="Path_7" data-name="Path 7" d="M784.1,1550.695c.943,1.358-.955,2.528-1.25,4.41s1.86,2.941-.426,5.406c-1.408,1.518-2.6-.5-3.742,1.828s-.243,2.718-1.529,3.555c-2.243,1.459-5.675-1.766-4.52-4.089s3.489-2.116,2.409-4.027-1.482-2.735.381-3.718c2.305-1.216,4.337-.1,4.522-1.878S782.853,1548.9,784.1,1550.695Z" transform="translate(-772.401 -1549.885)" fill="#ffca59"/>
          <path id="Path_8" data-name="Path 8" d="M795.887,1605.851l-.388-.077a35.262,35.262,0,0,1,7.9-15.683l.287.272A34.842,34.842,0,0,0,795.887,1605.851Z" transform="translate(-794.043 -1587.556)" fill="#0e0e0e"/>
        </g>
        <g id="Group_15" data-name="Group 15" transform="translate(0 0)">
          <path id="Path_9" data-name="Path 9" d="M475.745,1487.982c-.975,1.987,1.772,3.153,2.541,5.585s-2.064,3.29,1.457,6.092c2.169,1.725,2.623.647,3.42,4.506.7,3.4,3.284.165,5.215,2.159,2.491,2.573,6.384-3.075,4.39-5.917s-4.322-2.108-3.277-4.855-.2-4.817-2.864-5.742c-3.3-1.146-4.48,1.62-5.083-.7S477.034,1485.354,475.745,1487.982Z" transform="translate(-475.538 -1486.574)" fill="#ed5a24"/>
          <path id="Path_10" data-name="Path 10" d="M541.686,1557a46.6,46.6,0,0,0-13.44-18.926l.325-.418a47.2,47.2,0,0,1,13.613,19.164Z" transform="translate(-524.922 -1534.434)" fill="#0e0e0e"/>
        </g>
      </g>
      <g id="Group_30" data-name="Group 30" transform="translate(56.389)">
        <g id="Group_18" data-name="Group 18" transform="translate(0 15.775)">
          <path id="Path_11" data-name="Path 11" d="M1163.635,2125.842h-3.265l-.338-7.1h3.94Z" transform="translate(-1153.072 -2071.759)" fill="#0e0e0e"/>
          <path id="Path_12" data-name="Path 12" d="M2063.507,2125.842h-3.265l-.338-7.1h3.94Z" transform="translate(-1996.202 -2071.759)" fill="#0e0e0e"/>
          <path id="Path_13" data-name="Path 13" d="M1202.8,1408.274q-.54,1.674-1.181,3.437h-54.2s-6.995-28.47,0-33.677a4.633,4.633,0,0,1,.644-.392c9.421-4.841,47.191-5.977,54.86.25.059.047.113.094.165.142C1205.909,1380.628,1208.366,1390.981,1202.8,1408.274Z" transform="translate(-1138.337 -1373.61)" fill="#707070"/>
          <path id="Path_14" data-name="Path 14" d="M1214.226,1681.36H1193.8l1.991-19.954C1199.357,1662.951,1208.838,1671.11,1214.226,1681.36Z" transform="translate(-1184.714 -1643.259)" fill="#363636"/>
          <path id="Path_15" data-name="Path 15" d="M1761.833,1674.769q-.54,1.674-1.181,3.437h-19.686c3.385-6.279,11.595-15.789,19.566-20.166Z" transform="translate(-1697.374 -1640.105)" fill="#363636"/>
          <path id="Path_16" data-name="Path 16" d="M1120.9,1656.978h-7.515a2.518,2.518,0,0,0-2.5,2.188l-2.4,18.121h-43.917l-2.4-18.121a2.518,2.518,0,0,0-2.5-2.188h-7.515a2.518,2.518,0,0,0-2.479,2.96l4.172,30.177h65.346l4.172-30.177A2.518,2.518,0,0,0,1120.9,1656.978Z" transform="translate(-1049.651 -1639.11)" fill="#707070"/>
          <g id="Group_17" data-name="Group 17" transform="translate(13.136 27.479)">
            <g id="Group_16" data-name="Group 16">
              <path id="Path_17" data-name="Path 17" d="M1303.247,1810.2c3.536,1.184,2.847,8.671,0,9.822h-42.9c-3.2-.827-3.475-10.731,1.146-9.986C1289.772,1815.356,1291.142,1806.874,1303.247,1810.2Z" transform="translate(-1257.978 -1809.403)" fill="#e2e2e2"/>
            </g>
          </g>
        </g>
        <g id="Group_29" data-name="Group 29" transform="translate(21.974 0)">
          <path id="Path_18" data-name="Path 18" d="M1457.342,1356.907a39.763,39.763,0,0,0,.3,5.347h20.115l1.191-19.641c-1.195-7.174-4.466-8.913-9.643-8.913-4.634,0-7.719,3.78-9.595,8.839A43.945,43.945,0,0,0,1457.342,1356.907Z" transform="translate(-1453.608 -1320.442)" fill="#4790fc"/>
          <path id="Path_19" data-name="Path 19" d="M1457.359,1488.629l7.279-.438c-4.041-1.323-4.363-7.525-.255-11.385l-4.658-2.924A46.222,46.222,0,0,0,1457.359,1488.629Z" transform="translate(-1453.625 -1451.785)" fill="#005459"/>
          <path id="Path_20" data-name="Path 20" d="M1435.388,1711.147h27.636v-9.4H1438.13Z" transform="translate(-1433.039 -1665.276)" fill="#0e0e0e"/>
          <g id="Group_21" data-name="Group 21" transform="translate(20.305 36.407)">
            <g id="Group_19" data-name="Group 19">
              <path id="Path_21" data-name="Path 21" d="M1733.355,1707.279l-7.423,26.973h-5.788c1.832-11.478,1.422-18.939,3.146-28.47C1724.8,1697.957,1735.155,1700.028,1733.355,1707.279Z" transform="translate(-1720.144 -1700.799)" fill="#0e0e0e"/>
            </g>
            <g id="Group_20" data-name="Group 20" transform="translate(0 28.299)">
              <path id="Path_22" data-name="Path 22" d="M1778.951,2176.732c0-.018,0-.035,0-.053a3.62,3.62,0,1,1,7.241,0c0,.018,0,.035,0,.053Z" transform="translate(-1775.242 -2171.578)" fill="#b15626"/>
              <path id="Path_23" data-name="Path 23" d="M1728.171,2151.135l-1.316-.4c-.869-1.709-4.573-1.5-4.057.583a2.718,2.718,0,0,1-2.218-.508l-.435,3.934h7.849Z" transform="translate(-1720.144 -2149.588)" fill="#b15626"/>
            </g>
          </g>
          <g id="Group_24" data-name="Group 24" transform="translate(0.712 36.407)">
            <g id="Group_22" data-name="Group 22">
              <path id="Path_24" data-name="Path 24" d="M1409.633,1707.279l7.423,26.973h5.788c-1.833-11.478-1.422-18.939-3.146-28.47C1418.187,1697.957,1407.834,1700.028,1409.633,1707.279Z" transform="translate(-1409.424 -1700.799)" fill="#0e0e0e"/>
            </g>
            <g id="Group_23" data-name="Group 23" transform="translate(2.472 28.299)">
              <path id="Path_25" data-name="Path 25" d="M1455.864,2176.732c0-.018,0-.035,0-.053a3.62,3.62,0,1,0-7.241,0c0,.018,0,.035,0,.053Z" transform="translate(-1448.624 -2171.578)" fill="#b15626"/>
              <path id="Path_26" data-name="Path 26" d="M1494.973,2151.135l1.316-.4c.869-1.709,4.573-1.5,4.057.583a2.718,2.718,0,0,0,2.219-.508l.435,3.934h-7.849Z" transform="translate(-1492.05 -2149.588)" fill="#b15626"/>
            </g>
          </g>
          <path id="Path_27" data-name="Path 27" d="M1410.733,1343.708c2.715,1.648,3.1,6.54,1.71,8.49l-7.747,5.771,7.887,4.061-1.281,4.2s-8.232-.67-12.262-4.8C1395.171,1357.453,1404.6,1345.795,1410.733,1343.708Z" transform="translate(-1398.136 -1329.818)" fill="#4790fc"/>
          <path id="Path_28" data-name="Path 28" d="M1650.737,1353.057c-2.322-2.916-.718-7.422,2.242-7.289,9.64,3.394,12.615,12.816,9.562,17.046-2.616,3.624-14.125,5.019-14.125,5.019v-3.967l8-1.728S1652.289,1355.749,1650.737,1353.057Z" transform="translate(-1632.633 -1331.745)" fill="#4790fc"/>
          <g id="Group_26" data-name="Group 26" transform="translate(8.762 21.296)">
            <path id="Path_29" data-name="Path 29" d="M1551.017,1628.1a3.055,3.055,0,0,1,2.627-3.353c3.492-.634,4.757,1.282,5.087,2.652a.58.58,0,0,1-.539.7.59.59,0,0,1-.562-.474,1.351,1.351,0,0,0-.609-.943c.361.707.21,1.418-.773,1.418Z" transform="translate(-1550.123 -1614.316)" fill="#f7a594"/>
            <g id="Group_25" data-name="Group 25">
              <path id="Path_30" data-name="Path 30" d="M1545.878,1474.949l2.748-13.781h.583l-2.975,15.17H1538l-.9-1.388Z" transform="translate(-1537.098 -1461.168)" fill="#99c1ff"/>
              <path id="Path_31" data-name="Path 31" d="M1684.97,1461.168h20.452l-3.025,15.17H1682Z" transform="translate(-1672.859 -1461.168)" fill="#fff"/>
            </g>
          </g>
          <g id="Group_28" data-name="Group 28" transform="translate(14.91)">
            <g id="Group_27" data-name="Group 27" transform="translate(0 8.819)">
              <path id="Path_32" data-name="Path 32" d="M1634.6,1269.347c0,1.568,4.7,2.608,6.238.96a1.739,1.739,0,0,0,.454-.93l.885-3.972-5.614-2.117-.167.519Z" transform="translate(-1634.6 -1263.288)" fill="#f7a594"/>
              <path id="Path_33" data-name="Path 33" d="M1671.363,1279.581l.885-3.972-5.312-1.43C1665.562,1278.271,1670.468,1281.54,1671.363,1279.581Z" transform="translate(-1664.672 -1273.492)" fill="#f4856d"/>
            </g>
            <path id="Path_34" data-name="Path 34" d="M1658.848,1140.5c-.3,3.9,2.789,7.342,5.378,7.516s6.153-2.717,6.448-6.621-2.112-7.269-5.378-7.516S1659.143,1136.6,1658.848,1140.5Z" transform="translate(-1657.3 -1133.207)" fill="#f7a594"/>
            <path id="Path_35" data-name="Path 35" d="M1661.827,1124.4c3.58-2.267,5.55-.135,7.332,2.126,1.251,1.587,2.137,2.727,3.693,2.965-2.994,3.777-8.983,1.285-10.87-2.5a4.547,4.547,0,0,1-4.484,3.733C1656.929,1128.327,1658.59,1123.481,1661.827,1124.4Z" transform="translate(-1655.951 -1123.432)" fill="#0e0e0e"/>
            <circle id="Ellipse_4" data-name="Ellipse 4" cx="1.558" cy="1.558" r="1.558" transform="translate(0.443 6.056) rotate(-9.217)" fill="#f7a594"/>
          </g>
        </g>
      </g>
    </g>
  </g>
</svg>
