<svg xmlns="http://www.w3.org/2000/svg" width="19.26" height="14.716" viewBox="0 0 19.26 14.716">
  <g id="mail" transform="translate(-8.1 -13.8)">
    <g id="Icon-Envelope" transform="translate(8.1 13.8)">
      <path id="Fill-3" d="M-50.662-214.336l-.764-.764-7.077,7.077a2.33,2.33,0,0,1-3.257,0l-7.077-7.037-.764.764,5.267,5.267-5.267,5.267.764.764,5.267-5.267,1.045,1.045a3.352,3.352,0,0,0,2.372,1.005,3.352,3.352,0,0,0,2.372-1.005l1.045-1.045L-51.466-203l.764-.764-5.267-5.267,5.308-5.308" transform="translate(69.721 216.346)" fill="#363636"/>
      <path id="Fill-4" d="M-52.329-203.484H-68.211a1.7,1.7,0,0,1-1.689-1.689v-11.339a1.7,1.7,0,0,1,1.689-1.689h15.883a1.7,1.7,0,0,1,1.689,1.689v11.339a1.7,1.7,0,0,1-1.689,1.689Zm-15.923-13.631a.55.55,0,0,0-.563.563v11.339a.55.55,0,0,0,.563.563h15.883a.55.55,0,0,0,.563-.563v-11.339a.55.55,0,0,0-.563-.563Z" transform="translate(69.9 218.2)" fill="#363636"/>
    </g>
  </g>
</svg>
