<svg xmlns="http://www.w3.org/2000/svg" width="14.07" height="15.633" viewBox="0 0 14.07 15.633">
  <path id="calander" d="M13.943,3.563h1.563A1.563,1.563,0,0,1,17.07,5.127V16.07a1.563,1.563,0,0,1-1.563,1.563H4.563A1.563,1.563,0,0,1,3,16.07V5.127A1.568,1.568,0,0,1,4.563,3.563H6.127V2.782a.782.782,0,1,1,1.563,0v.782h4.69V2.782a.782.782,0,0,1,1.563,0ZM12.38,5.127H7.69v.782a.782.782,0,0,1-1.563,0V5.127H4.563V8.253H15.507V5.127H13.943v.782a.782.782,0,1,1-1.563,0Zm3.127,4.69H4.563V16.07H15.507Z" transform="translate(-3 -2)" fill="#363636"/>
</svg>
