<svg xmlns="http://www.w3.org/2000/svg" width="21.938" height="20.814" viewBox="0 0 21.938 20.814">
  <g id="key" transform="translate(11.128 -6.06) rotate(51)">
    <path id="Path_1" data-name="Path 1" d="M12.7,19.987a.633.633,0,0,1-.38-.127l-2.532-1.9a.633.633,0,0,1-.253-.506V11.422a5.7,5.7,0,1,1,6.331,0v.969a.633.633,0,0,1-.184.449l-.823.817.823.817a.633.633,0,0,1,0,.9l-.823.817.823.817a.634.634,0,0,1-.07.956l-2.532,1.9A.633.633,0,0,1,12.7,19.987Zm-1.9-2.849,1.9,1.424,1.57-1.177-.753-.747a.633.633,0,0,1,0-.9l.823-.817-.823-.817a.633.633,0,0,1,0-.9L14.6,12.131V11.073a.633.633,0,0,1,.317-.544,4.431,4.431,0,1,0-4.431,0,.633.633,0,0,1,.317.544ZM15.23,12.39Z" transform="translate(0 0)" fill="#363636"/>
    <circle id="Ellipse_1" data-name="Ellipse 1" cx="0.633" cy="0.633" r="0.633" transform="translate(12.064 4.793)" fill="#363636"/>
    <path id="Path_2" data-name="Path 2" d="M15.266,8.532a1.266,1.266,0,1,1,1.266-1.266A1.266,1.266,0,0,1,15.266,8.532ZM15.266,7.266Z" transform="translate(-2.569 -1.84)" fill="#363636"/>
  </g>
</svg>
