<svg xmlns="http://www.w3.org/2000/svg" width="28.4" height="19.401" viewBox="0 0 28.4 19.401">
  <g id="followed" transform="translate(-203.417 -940.223)">
    <g id="Group_4109" data-name="Group 4109" transform="translate(203.917 940.723)">
      <g id="Group_4100" data-name="Group 4100" transform="translate(0)">
        <g id="_2303199_airplane_delivery_email_mail_paper_icon" data-name="2303199_airplane_delivery_email_mail_paper_icon" transform="translate(0 0)">
          <path id="Path_10004" data-name="Path 10004" d="M14.6,22.012l5.891,4.32,10.7-18.4L3.79,14.213,10.4,19v6.7Z" transform="translate(-3.79 -7.93)" fill="none" stroke="#fff" stroke-linecap="round" stroke-linejoin="round" stroke-width="1"/>
          <line id="Line_30" data-name="Line 30" y1="10.801" x2="20.429" transform="translate(6.455 0.505)" fill="none" stroke="#fff" stroke-linecap="round" stroke-linejoin="round" stroke-width="1"/>
          <path id="Path_10006" data-name="Path 10006" d="M0,12.354,17.425,0" transform="translate(9.459 0.505)" fill="none" stroke="#fff" stroke-linecap="round" stroke-width="1"/>
        </g>
      </g>
    </g>
    <path id="Path_10010" data-name="Path 10010" d="M1793.469,1154.3l4.8,3.026-3.954,3.1Z" transform="translate(-1583.132 -202.925)" fill="#fff"/>
  </g>
</svg>
