<svg xmlns="http://www.w3.org/2000/svg" width="342.659" height="91.063" viewBox="0 0 342.659 91.063">
  <g id="Group_1561" data-name="Group 1561" transform="translate(804.735 321.992)">
    <path id="Path_9366" data-name="Path 9366" d="M-805-231.37l115.584-61.7,67.982,10.991,43.988-27.8,57.585,5.819,56.785-17.456v90.144Z" transform="translate(1)" fill="#ffe1c9"/>
    <path id="Path_9365" data-name="Path 9365" d="M-805-231.37l115.584-61.7,67.982,10.991,43.988-27.8,57.585,5.819,56.785-17.456" transform="translate(0.5)" fill="none" stroke="#ff7200" stroke-width="1"/>
  </g>
</svg>
