<svg id="follow" xmlns="http://www.w3.org/2000/svg" width="20.197" height="20.197" viewBox="0 0 20.197 20.197">
  <path id="Path_10007" data-name="Path 10007" d="M13.1,3A10.1,10.1,0,1,0,23.2,13.1,10.1,10.1,0,0,0,13.1,3Zm5.2,13.136a18.946,18.946,0,0,0,.241-3.037,18.426,18.426,0,0,0-.249-3.037c2.09.769,3.356,1.934,3.356,3.037S20.331,15.429,18.3,16.136ZM4.554,13.1c0-1.142,1.313-2.292,3.348-3.037A18.947,18.947,0,0,0,7.661,13.1a18.426,18.426,0,0,0,.249,3.037C5.82,15.367,4.554,14.2,4.554,13.1ZM9.6,5.33A11.031,11.031,0,0,0,8.3,8.3,11.023,11.023,0,0,0,5.33,9.6,8.545,8.545,0,0,1,9.6,5.33ZM5.33,16.594a11.365,11.365,0,0,0,3.356,1.4h.07a18.178,18.178,0,0,0,4.342.544,13.174,13.174,0,0,0,1.367-.047.779.779,0,1,0-.109-1.554q-.614.047-1.258.047a16.251,16.251,0,0,1-3.511-.365A16.57,16.57,0,0,1,9.215,13.1c0-5.034,2.051-8.545,3.884-8.545.777,0,1.554.59,2.245,1.662a.775.775,0,1,0,1.313-.823.668.668,0,0,0-.054-.078A8.545,8.545,0,0,1,20.867,9.6a11.606,11.606,0,0,0-3.48-1.429h0A18.03,18.03,0,0,0,13.1,7.661a13.174,13.174,0,0,0-1.367.047.779.779,0,1,0,.109,1.554q.621-.047,1.258-.047a16.251,16.251,0,0,1,3.511.365,16.57,16.57,0,0,1,.373,3.519c0,5.034-2.051,8.545-3.884,8.545-.777,0-1.554-.59-2.245-1.662a.777.777,0,1,0-1.313.823.668.668,0,0,0,.054.078A8.545,8.545,0,0,1,5.33,16.594Zm11.264,4.272A11.031,11.031,0,0,0,17.9,17.876,11.023,11.023,0,0,0,20.867,16.6,8.545,8.545,0,0,1,16.594,20.867Z" transform="translate(-3 -3)" fill="#fff"/>
</svg>
