<svg id="w-signals" xmlns="http://www.w3.org/2000/svg" width="21.422" height="19.476" viewBox="0 0 21.422 19.476">
  <path id="Path_10001" data-name="Path 10001" d="M14.843,12.921a2.921,2.921,0,1,0-3.9,2.746v4.071H9v1.948h5.843V19.738H12.9V15.667a2.921,2.921,0,0,0,1.948-2.746Z" transform="translate(-1.206 -2.209)" fill="#fff"/>
  <path id="Path_10002" data-name="Path 10002" d="M16.627,17.686a6.739,6.739,0,0,0,2.006-4.869A6.817,6.817,0,0,0,5,12.817a6.739,6.739,0,0,0,2.006,4.869L8.379,16.3a4.8,4.8,0,0,1-1.432-3.486,4.869,4.869,0,0,1,9.738,0,4.8,4.8,0,0,1-1.422,3.438Z" transform="translate(-1.101 -2.105)" fill="#fff"/>
  <path id="Path_10003" data-name="Path 10003" d="M11.712,2A10.712,10.712,0,0,0,4.136,20.288l1.373-1.373a8.764,8.764,0,1,1,12.4,0l1.373,1.373A10.712,10.712,0,0,0,11.712,2Z" transform="translate(-0.996 -2)" fill="#fff"/>
</svg>
