<svg xmlns="http://www.w3.org/2000/svg" width="62.25" height="61.924" viewBox="0 0 62.25 61.924">
  <g id="_5027854_analytics_business_chart_graph_statistics_icon" data-name="5027854_analytics_business_chart_graph_statistics_icon" transform="translate(-1.13 -1.25)">
    <path id="Path_9509" data-name="Path 9509" d="M1.13,21.5A27.351,27.351,0,0,1,38.767,46.867a27.213,27.213,0,0,1-1.8,9.7H1.13Z" transform="translate(0 5.539)" fill="#febecc"/>
    <g id="Group_1756" data-name="Group 1756" transform="translate(1.456 1.25)">
      <rect id="Rectangle_2130" data-name="Rectangle 2130" width="9.399" height="46.58" transform="translate(54.024 60.945) rotate(180)" fill="#e9f4bc"/>
      <rect id="Rectangle_2131" data-name="Rectangle 2131" width="9.399" height="28.42" transform="translate(35.655 60.945) rotate(180)" fill="#e9f4bc"/>
      <rect id="Rectangle_2132" data-name="Rectangle 2132" width="9.399" height="18.382" transform="translate(17.286 60.947) rotate(180)" fill="#e9f4bc"/>
      <rect id="Rectangle_2133" data-name="Rectangle 2133" width="9.399" height="46.58" transform="translate(54.024 60.945) rotate(180)" fill="#e9f4bc"/>
      <rect id="Rectangle_2134" data-name="Rectangle 2134" width="9.399" height="28.42" transform="translate(35.655 60.945) rotate(180)" fill="#ff9d9c"/>
      <rect id="Rectangle_2135" data-name="Rectangle 2135" width="9.399" height="18.382" transform="translate(17.286 60.947) rotate(180)" fill="#fde4a1"/>
      <g id="Group_1755" data-name="Group 1755">
        <path id="Path_9510" data-name="Path 9510" d="M62.326,61.219H56.395v-45.6a.985.985,0,0,0-.978-.978h-9.4a.985.985,0,0,0-.978.978v45.6H38.026V33.776a.985.985,0,0,0-.978-.978h-9.4a.985.985,0,0,0-.978.978V61.219H19.657v-17.4a.985.985,0,0,0-.978-.978H9.267a.985.985,0,0,0-.978.978v17.4H3.335V2.228a.978.978,0,1,0-1.955,0V62.2a.985.985,0,0,0,.978.978H62.326a.978.978,0,1,0,0-1.955Zm-52.081,0V44.792h7.444V61.219Zm18.369,0V34.754h7.444V61.219Zm18.369,0V16.594h7.444V61.219Z" transform="translate(-1.38 -1.25)" fill="#505050"/>
        <path id="Path_9511" data-name="Path 9511" d="M9.927,37.67a.967.967,0,0,0,.691-.287L36.144,11.857v4.289a.978.978,0,1,0,1.955,0V9.5a.985.985,0,0,0-.978-.978H30.473a.978.978,0,1,0,0,1.955h4.289L9.236,36a.984.984,0,0,0,0,1.382A.967.967,0,0,0,9.927,37.67Z" transform="translate(0.919 0.958)" fill="#505050"/>
      </g>
    </g>
  </g>
</svg>
