<svg id="set" xmlns="http://www.w3.org/2000/svg" width="20.315" height="20.317" viewBox="0 0 20.315 20.317">
  <path id="Path_10008" data-name="Path 10008" d="M74.394,68.317H71.343a.758.758,0,0,1-.754-.678l-.226-2.127a7.721,7.721,0,0,1-.922-.382l-1.662,1.344a.758.758,0,0,1-1.011-.054L64.61,64.263a.758.758,0,0,1-.054-1.011L65.9,61.588a7.69,7.69,0,0,1-.383-.922l-2.131-.227a.758.758,0,0,1-.678-.754V56.633a.758.758,0,0,1,.678-.754l2.127-.226a7.689,7.689,0,0,1,.383-.922l-1.345-1.664a.758.758,0,0,1,.054-1.011L66.764,49.9a.758.758,0,0,1,1.011-.054l1.664,1.344a7.72,7.72,0,0,1,.922-.382l.226-2.127a.758.758,0,0,1,.756-.68h3.051a.758.758,0,0,1,.754.678l.225,2.127a7.728,7.728,0,0,1,.923.382l1.664-1.344a.758.758,0,0,1,1.011.054l2.158,2.158a.758.758,0,0,1,.054,1.011l-1.345,1.664a7.776,7.776,0,0,1,.383.922l2.127.226a.758.758,0,0,1,.678.754v3.052a.758.758,0,0,1-.676.755l-2.127.226a7.773,7.773,0,0,1-.383.922l1.345,1.664a.758.758,0,0,1-.054,1.011L78.973,66.42a.758.758,0,0,1-1.011.054L76.3,65.129a7.729,7.729,0,0,1-.923.382l-.225,2.127A.758.758,0,0,1,74.394,68.317ZM72.024,66.8h1.688l.207-1.949a.758.758,0,0,1,.559-.652A6.216,6.216,0,0,0,76,63.566a.758.758,0,0,1,.859.066l1.524,1.232,1.193-1.193-1.234-1.52a.758.758,0,0,1-.066-.859,6.2,6.2,0,0,0,.631-1.523.758.758,0,0,1,.653-.559L81.511,59V57.315l-1.948-.207a.758.758,0,0,1-.653-.559,6.2,6.2,0,0,0-.631-1.524.758.758,0,0,1,.066-.859l1.232-1.524-1.193-1.193L76.859,52.68a.758.758,0,0,1-.859.066,6.216,6.216,0,0,0-1.523-.631.758.758,0,0,1-.559-.652l-.2-1.946H72.024l-.207,1.949a.758.758,0,0,1-.559.652,6.206,6.206,0,0,0-1.522.633.758.758,0,0,1-.859-.066l-1.523-1.234-1.193,1.193,1.232,1.524a.758.758,0,0,1,.066.859,6.238,6.238,0,0,0-.631,1.523.758.758,0,0,1-.652.559l-1.949.207V59l1.949.207a.758.758,0,0,1,.652.559,6.237,6.237,0,0,0,.631,1.522.758.758,0,0,1-.066.859l-1.232,1.522,1.193,1.193,1.525-1.232a.758.758,0,0,1,.859-.066,6.206,6.206,0,0,0,1.523.631.758.758,0,0,1,.559.652Zm10.245-7.117Z" transform="translate(-62.71 -48)" fill="#fff"/>
  <path id="Path_10009" data-name="Path 10009" d="M176.977,166.875a4.617,4.617,0,1,1,4.618-4.617A4.617,4.617,0,0,1,176.977,166.875Zm0-7.718a3.1,3.1,0,1,0,3.1,3.1A3.1,3.1,0,0,0,176.977,159.156Z" transform="translate(-166.818 -152.099)" fill="#fff"/>
</svg>
